Country,traduccion,Capital,Latitude,Longitude
Afghanistan,Afganistán,Kabul,34.53,69.17
Albania,Albania,Tirana,41.33,19.82
Algeria,Argelia,Algiers,36.75,3.04
American Samoa,Samoa Americana,Pago Pago,-14.28,-170.7
Andorra,Andorra,Andorra la Vella,42.51,1.52
Angola,Angola,Luanda,-8.84,13.23
Anguilla,Anguilla,The Valley,18.22,-63.06
Antigua and Barbuda,Antigua y Barbuda,St. John's,17.12,-61.85
Argentina,Argentina,Buenos Aires,-34.61,-58.38
Armenia,Armenia,Yerevan,40.18,44.51
Aruba,Aruba,Oranjestad,12.52,-70.03
Australia,Australia,Canberra,-35.28,149.13
Austria,Austria,Vienna,48.21,16.37
Azerbaijan,Azerbaiyán,Baku,40.38,49.89
Bahamas,Bahamas,Nassau,25.06,-77.34
Bahrain,Bahrein,Manama,26.22,50.58
Bangladesh,Bangladesh,Dhaka,23.71,90.41
Barbados,Barbados,Bridgetown,13.1,-59.62
Belarus,Bielorrusia,Minsk,53.9,27.57
Belgium,Bélgica,Brussels,50.85,4.35
Belize,Belice,Belmopan,17.25,-88.77
Benin,Benin,Porto-Novo,6.5,2.6
Bermuda,Bermuda,Hamilton,32.29,-64.78
Bhutan,Bhutan,Thimphu,27.47,89.64
Bolivia,Bolivia,Sucre,-19.03,-65.26
Bosnia and Herzegovina,Bosnia y Herzegovina,Sarajevo,43.85,18.36
Botswana,Botswana,Gaborone,-24.65,25.91
Brazil,Brasil,Brasília,-15.78,-47.93
British Indian Ocean Territory,Territorio Británico del Océano Índico,Diego Garcia,72.46,7.24
British Virgin Islands,Islas Vírgenes Británicas,Road Town,18.42,-64.62
Brunei,Brunéi,Bandar Seri Begawan,4.94,114.95
Bulgaria,Bulgaria,Sofia,42.7,23.32
Burkina Faso,Burkina Faso,Ouagadougou,12.37,-1.53
Burundi,Burundi,Bujumbura,-3.38,29.36
Cambodia,Camboya,Phnom Penh,11.56,104.92
Cameroon,Camerún,Yaoundé,3.87,11.52
Canada,Canadá,Ottawa,45.41,-75.7
Cape Verde,Cabo Verde,Praia,14.93,-23.51
Cayman Islands,Islas Caimán,George Town,19.29,-81.37
Central African Republic,República Centroafricana,Bangui,4.36,18.55
Chad,Chad,N'Djamena,12.11,15.04
Chile,Chile,Santiago,-33.46,-70.65
China,China,Beijing,39.91,116.4
Christmas Island,Isla de Navidad,The Settlement,-10.42,105.68
Cocos Islands,Islas Cocos,West Island,-12.16,96.82
Colombia,Colombia,Bogotá,4.61,-74.08
Comoros,Comoras,Moroni,-11.7,43.26
Cook Islands,Islas Cook,Avarua,-21.21,-159.78
Costa Rica,Costa Rica,San José,9.93,-84.08
Croatia,Croacia,Zagreb,45.81,15.98
Cuba,Cuba,Havana,23.13,-82.38
Cyprus,Chipre,Nicosia,35.17,33.37
Czech Republic,República Checa,Prague,50.09,14.42
Democratic Republic of the Congo,República Democrática del Congo,Kinshasa,-4.32,15.31
Denmark,Dinamarca,Copenhagen,55.68,12.57
Djibouti,Djibouti,Djibouti,11.59,43.15
Dominica,Dominica,Roseau,15.3,-61.39
Dominican Republic,República Dominicana,Santo Domingo,18.5,-69.99
East Timor,Timor del Este,Dili,-8.56,125.57
Ecuador,Ecuador,Quito,-0.23,-78.52
Egypt,Egipto,Cairo,30.06,31.25
El Salvador,El Salvador,San Salvador,13.69,-89.19
Equatorial Guinea,Guinea Ecuatorial,Malabo,3.75,8.78
Eritrea,Eritrea,Asmara,15.33,38.93
Estonia,Estonia,Tallinn,59.44,24.75
Ethiopia,Etiopía,Addis Ababa,9.02,38.75
Falkland Islands,Islas Malvinas,Stanley,-51.7,-57.85
Faroe Islands,Islas Feroe,Tórshavn,62.01,-6.77
Fiji,Fiji,Suva,-18.14,178.44
Finland,Finlandia,Helsinki,60.17,24.94
France,Francia,Paris,48.85,2.35
French Guiana,Guiana francés,Cayenne,4.93,-52.33
French Polynesia,Polinesia francés,Papeete,-17.53,-149.57
Gabon,Gabón,Libreville,0.39,9.45
Gambia,Gambia,Banjul,13.45,-16.58
Georgia,Georgia,Tbilisi,41.69,44.83
Germany,Alemania,Berlin,52.52,13.41
Ghana,Ghana,Accra,5.56,-0.2
Gibraltar,Gibraltar,Gibraltar,36.14,-5.35
Greece,Grecia,Athens,37.98,23.72
Greenland,Groenlandia,Nuuk (Godthåb),64.18,-51.72
Grenada,Granada,St. George's,12.06,-61.75
Guadeloupe,Guadalupe,Basse-Terre,16,-61.73
Guam,Guam,Hagåtña,13.48,144.75
Guatemala,Guatemala,New Guatemala,14.64,-90.51
Guernsey,Guernsey,St Peter Port,49.46,-2.54
Guinea,Guinea,Conakry,9.54,-13.68
Guinea-Bissau,Guinea-Bissau,Bissau,11.86,-15.6
Guyana,Guayana,Georgetown,6.8,-58.16
Haiti,Haití,Port-au-Prince,18.54,-72.34
Honduras,Honduras,Tegucigalpa,14.08,-87.21
Hong Kong,Hong Kong,Hong Kong,22.29,114.16
Hungary,Hungría,Budapest,47.5,19.04
Iceland,Islandia,Reykjavík,64.14,-21.9
India,India,New Delhi,28.64,77.22
Indonesia,Indonesia,Jakarta,-6.21,106.85
Iran,Irán,Tehran,35.69,51.42
Iraq,Irak,Baghdad,33.34,44.4
Ireland,Irlanda,Dublin,53.33,-6.25
Isle of Man,Isla de Man,Douglas,54.15,-4.48
Israel,Israel,Jerusalem,35.23,31.77
Italy,Italia,Rome,41.89,12.48
Ivory Coast,Costa de Marfil,Yamoussoukro,6.82,-5.28
Jamaica,Jamaica,Kingston,18,-76.79
Japan,Japón,Edo,35.69,139.69
Jersey,Jersey,Saint Helier,49.19,-2.1
Jordan,Jordania,Amman,31.96,35.95
Kazakhstan,Kazajstán,Astana,51.18,71.45
Kenya,Kenia,Nairobi,-1.28,36.82
Kiribati,Kiribati,South Tarawa,1.33,172.98
Kosovo,Kosovo,Pristina,42.67,21.17
Kuwait,Kuwait,Kuwait City,29.37,47.98
Kyrgyzstan,Kirguistán,Bishkek,42.87,74.59
Laos,Laos,Vientiane,17.97,102.6
Latvia,Letonia,Riga,56.95,24.11
Lebanon,Líbano,Beirut,33.89,35.49
Lesotho,Lesoto,Maseru,-29.32,27.48
Liberia,Liberia,Monrovia,6.3,-10.8
Libya,Libia,Tripoli,32.88,13.19
Liechtenstein,Liechtenstein,Vaduz,47.14,9.52
Lithuania,Lituania,Vilnius,54.69,25.28
Luxembourg,Luxemburgo,Luxembourg,49.61,6.13
Macao,Macao,Macao,22.2,113.55
Macedonia,Macedonia,Skopje,42,21.43
Madagascar,Madagascar,Antananarivo,-18.91,47.54
Malawi,Malawi,Lilongwe,-13.97,33.79
Malaysia,Malasia,Kuala Lumpur,3.14,101.69
Maldives,Maldivas,Malé,4.17,73.51
Mali,Malí,Bamako,12.65,-8
Malta,Malta,Valletta,35.9,14.51
Marshall Islands,Islas Marshall,Majuro,7.09,171.38
Martinique,Martinica,Fort-de-France,14.61,-61.07
Mauritania,Mauritania,Nouakchott,18.09,-15.98
Mauritius,Mauricio,Port Louis,-20.16,57.5
Mayotte,Mayotte,Mamoutzou,-12.78,45.23
Mexico,México,Mexico City,19.43,-99.13
Micronesia,Micronesia,Palikir,6.92,158.16
Moldova,Moldavia,Chişinău,47.01,28.86
Monaco,Mónaco,Monaco,43.73,7.42
Mongolia,Mongolia,Ulan Bator,47.91,106.88
Montenegro,Montenegro,Podgorica,42.44,19.26
Montserrat,Montserrat,Plymouth,16.71,-62.21
Morocco,Marruecos,Rabat,34.01,-6.83
Mozambique,Mozambique,Maputo,-25.97,32.58
Myanmar,Myanmar,Nay Pyi Taw,19.75,96.13
Namibia,Namibia,Windhoek,-22.56,17.08
Nauru,Nauru,Yaren,166.93,-0.54
Nepal,Nepal,Kathmandu,27.7,85.32
Netherlands,Países Bajos,Amsterdam,52.37,4.89
Netherlands Antilles,Antillas Holandesas,Willemstad,-68.92,12.1
New Caledonia,Nueva Caledonia,Noumea,-22.28,166.46
New Zealand,Nueva Zelandia,Wellington,-41.29,174.78
Nicaragua,Nicaragua,Managua,12.13,-86.25
Niger,Níger,Niamey,13.51,2.11
Nigeria,Nigeria,Abuja,9.07,7.48
Niue,Niue,Alofi,-19.06,-169.92
Norfolk Island,Isla Norfolk,Kingston,-29.05,167.97
North Korea,Corea del Norte,Pyongyang,39.03,125.75
Northern Mariana Islands,Islas Marianas del Norte,Saipan,15.21,145.75
Norway,Noruega,Oslo,59.91,10.75
Oman,Omán,Muscat,23.61,58.59
Pakistan,Pakistán,Islamabad,33.72,73.04
Palau,Palau,Melekeok,7.5,134.62
Palestinian Territory,Territorio palestino,East Jerusalem,35.23,31.77
Panama,Panamá,Panama City,8.99,-79.52
Papua New Guinea,Papua Nueva Guinea,Port Moresby,-9.44,147.18
Paraguay,Paraguay,Asunción,-25.3,-57.64
Peru,Perú,Lima,-12.04,-77.03
Philippines,Filipinas,Manila,14.6,120.98
Pitcairn,Pitcairn,Adamstown,-25.07,-130.1
Poland,Polonia,Warsaw,52.23,21.01
Portugal,Portugal,Lisbon,38.72,-9.13
Puerto Rico,Puerto Rico,San Juan,18.47,-66.11
Qatar,Katar,Doha,25.28,51.52
Republic of the Congo,República del Congo,Brazzaville,-4.27,15.28
Reunion,Reunión,Saint-Denis,-20.88,55.45
Romania,Rumania,Bucharest,44.43,26.11
Russia,Rusia,Moscow,55.75,37.62
Rwanda,Ruanda,Kigali,-1.95,30.06
Saint Barthélemy,San Bartolomé,Gustavia,17.9,-62.85
Saint Helena,Santa Elena,Jamestown,-15.94,-5.72
Saint Kitts and Nevis,Saint Kitts y Nevis,Basseterre,17.29,-62.73
Saint Lucia,Santa Lucía,Castries,14,-61.01
Saint Martin,Saint Martin,Marigot,18.07,-63.08
Saint Pierre and Miquelon,San Pedro y Miquelón,Saint-Pierre,46.78,-56.17
Saint Vincent and the Grenadines,San Vicente y las Granadinas,Kingstown,13.16,-61.22
Samoa,Samoa,Apia,-13.83,-171.77
San Marino,San Marino,San Marino,43.94,12.45
Sao Tome and Principe,Santo Tomé y Príncipe,São Tomé,0.34,6.73
Saudi Arabia,Arabia Saudita,Riyadh,24.69,46.72
Senegal,Senegal,Dakar,14.69,-17.44
Serbia,Serbia,Belgrade,44.8,20.47
Seychelles,Seychelles,Victoria,-4.62,55.45
Sierra Leone,Sierra Leona,Freetown,8.48,-13.23
Singapore,Singapur,Singapore,1.29,103.85
Slovakia,Eslovaquia,Bratislava,48.15,17.11
Slovenia,Eslovenia,Ljubljana,46.05,14.51
Solomon Islands,Islas Salomón,Honiara,-9.43,159.95
Somalia,Somalia,Mogadishu,2.04,45.34
South Africa,Sudáfrica,Pretoria,-25.74,28.19
South Georgia and the South Sandwich Islands,Georgia del Sur e Islas Sandwich del Sur,Grytviken,-54.28,-36.51
South Korea,Corea del Sur,Seoul,37.57,126.98
Spain,España,Madrid,40.42,-3.7
Sri Lanka,Sri Lanka,Colombo,6.93,79.85
Sudan,Sudán,Khartoum,15.55,32.53
Suriname,Suriname,Paramaribo,5.87,-55.17
Svalbard and Jan Mayen,Svalbard y Jan Mayen,Longyearbyen,78.22,15.64
Swaziland,Swazilandia,Mbabane,-26.32,31.13
Sweden,Suecia,Stockholm,59.33,18.06
Switzerland,Suiza,Berne,46.95,7.45
Syria,Siria,Damascus,33.51,36.29
Taiwan,Taiwan,Taipei,25.05,121.53
Tajikistan,Tayikistán,Dushanbe,38.54,68.78
Tanzania,Tanzania,Dodoma,-6.17,35.74
Thailand,Tailandia,Bangkok,13.75,100.5
Togo,Togo,Lomé,6.14,1.21
Tokelau,Tokelau,Nukunonu,-171.85,-9.2
Tonga,Tonga,Nuku'alofa,-21.13,-175.2
Trinidad and Tobago,Trinidad y Tobago,Port of Spain,10.67,-61.52
Tunisia,Túnez,Tunis,36.82,10.17
Turkey,Turquía,Ankara,39.92,32.85
Turkmenistan,Turkmenistán,Ashkhabad,37.95,58.38
Turks and Caicos Islands,Turcas y Caicos,Cockburn Town,21.46,-71.14
Tuvalu,Tuvalu,Funafuti,-8.52,179.19
U.S. Virgin Islands,Islas Vírgenes de los EE.UU.,Charlotte Amalie,18.34,-64.93
Uganda,Uganda,Kampala,0.32,32.58
Ukraine,Ucrania,Kiev,50.45,30.52
United Arab Emirates,Emiratos Árabes Unidos,Abu Dhabi,24.47,54.37
United Kingdom,Reino Unido,London,51.51,-0.13
United States,Estados Unidos,Washington,38.9,-77.04
Uruguay,Uruguay,Montevideo,-34.83,-56.17
Uzbekistan,Uzbekistán,Tashkent,41.26,69.22
Vanuatu,Vanuatu,Port Vila,-17.73,168.32
Vatican,Vaticano,Vatican,41.9,12.45
Venezuela,Venezuela,Caracas,10.49,-66.88
Vietnam,Vietnam,Hanoi,21.02,105.84
Wallis and Futuna,Wallis y Futuna,Mata-Utu,-13.28,-176.17
Western Sahara,Sáhara Occidental,El Aaiún,27.16,-13.2
Yemen,Yemen,Sanaa,15.35,44.21
Zambia,Zambia,Lusaka,-15.41,28.29
Zimbabwe,Zimbabue,Harare,-17.83,31.05