País,Vota,Vota países,Número de veces finalista desde 2000,Tasa de éxito,Geográficamente es país,leyenda
Islandia,"84,6",N,13,"30,7",N,N - Nórdicos
Islandia,"51,2",Dinamarca,,,,E - Del Este
Islandia,"33,3",Noruega,,,,M - Mediterraneos
Finlandia,50,N,12,"8,3",N,B - Balcanes
Finlandia,"38,8",Noruega,,,,BF - Big Five
Finlandia,"19,4",Suecia,,,,
Dinamarca,75,N,12,25,N,
Dinamarca,50,Suecia,,,,
Dinamarca,"30,5",Noruega,,,,
Noruega,"84,6",N,13,"15,3",N,
Noruega,41,Suecia,,,,
Noruega,"33,3",Dinamarca,,,,
Suecia,"42,8",N,14,"21,4",N,
Suecia,"30,9",Dinamarca,,,,
Suecia,"23,8",Noruega,,,,
Irlanda,"69,2",N,13,"33,3",,
Irlanda,"38,4",Dinamarca,,,,
Irlanda,18,Suecia,,,,
Irlanda,15,Reino Unido,,,,
Hungría,"42,8",N,7,"66,6",E,
Hungría,"29,6",Azerbaiyán,,,,
Hungría,"29,6",Grecia,,,,
Hungría,"18,5",Suecia,,,,
Lituania,92,E,12,18,E,
Lituania,33,Letonia,,,,
Lituania,25,Georgia,,,,
Lituania,25,Rusia ,,,,
Bielorrusia,90,E,10,10,E,
Bielorrusia,76,Rusia ,,,,
Bielorrusia,56,Ucrania,,,,
Moldavia,"88,8",E,9,0,E,
Moldavia,74,Rumanía,,,,
Moldavia,"25,9",Ucrania,,,,
Ucrania,82,E,11,"11,11",E,
Ucrania,55,Rusia ,,,,
Ucrania,14,Azerbaiyán,,,,
Rusia,64,E,14,"22,22",E,
Rusia,"26,1",Ucrania,,,,
Rusia,"26,1",Azerbaiyán,,,,
Estonia,50,E,14,"42,8",E,
Estonia,60,Rusia ,,,,
Estonia,"21,4",Letonia,,,,
Letonia,"42,8",E,14,50,E,
Letonia,38,Rusia ,,,,
Letonia,38,Estonia,,,,
Rumanía,"69,2",E,13,0,E,
Rumanía,59,Moldavia,,,,
Rumanía,"38,4",Grecia,,,,
Malta,"35,7",E,14,33,M,
Malta,"28,5",Azerbaiyán,,,,
Malta,"16,6",Rusia ,,,,
Turquía,"61,5",E,13,25,M,
Turquía,"38,4",Azerbaiyán,,,,
Turquía,"38,4",Bosnia,,,,
Turquía,18,Armenia,,,,
Reino Unido,50,M,14,"14,2",BF,
Reino Unido,"28,5",N,14,50,BF,
Reino Unido,"35,7",Grecia,,,,
Reino Unido,"23,8",Turquía,,,,
España,"35,7",BF,14,20,BF,
España,"47,6",Rumanía,,,,
España,30,Alemania,,,,
Francia,"64,2",M,14,0,BF,
Francia,"14,2",N,14,50,BF,
Francia,"57,14",Turquía,,,,
Francia,"16,6",España,,,,
Alemania ,"35,7",M,14,20,BF,
Alemania ,"28,5",N,14,50,BF,
Alemania ,"52,3",Turquía,,,,
Alemania ,"23,8",Grecia,,,,
Alemania ,19,Dinamarca,,,,
Portugal,"54,54",M,14,0,BF,
Portugal,41,E,14,0,BF,
Portugal,"57,4",España,,,,
Portugal,"33,3",Ucrania,,,,
Portugal,"15,15",Alemania,,,,
Italia,,,,,,
Albania,90,M,10,0,M,
Albania,"76,6",Grecia,,,,
Albania,"36,6",Turquia,,,,
Grecia,50,M,12,0,M,
Grecia,"41,6",Chipre,,,,
Grecia,25,Albania,,,,
Bulgaria,50,M,8,25,E,
Bulgaria,"66,6",Grecia,,,,
Bulgaria,"37,5",Azerbaiyán,,,,
Georgia,100,E,6,0,E,
Georgia,50,Armenia,,,,
Georgia ,"44,44",Azerbaiyán,,,,
Armenia,100,E,7,0,E,
Armenia,50,Rusia,,,,
Armenia,"35,7 ",Georgia,,,,
Azerbaiyán,80,M,6,0,E,
Azerbaiyán,66,Ucrania,,,,
Azerbaiyán,66,Turquia,,,,
Montenegreo,75,B,4,25,B,
Montenegreo,50,Serbia,,,,
Montenegro,"16,6",Azerbaiyán,,,,
"Serbia - OJO, DESDE DIVISION SERBIA NUNCA LE HA DADO MÁXIMA PUNTUACION A MONTENEGRO- NI 8. 10 12","71,4",B,7,0,B,
Serbia,"66,6",Bosnia,,,,
Serbia,19,Macedonia,,,,
Serbia,19,Macedonia,,,,
Bosnia,75,B,12,11,B,
Bosnia,50,Serbia,,,,
Bosnia,36,Croacia,,,,
F.Y.R. Macedonia,"66,6",B,12,"12,5",B,
F.Y.R. Macedonia,"41,6",Albania,,,,
F.Y.R. Macedonia,"33,3",Serbia,,,,
Croacia,50,B,14,"14,2",B,
Croacia,50,Bosnia,,,,
Croacia,38,Serbia,,,,