"The Netherlands ( 31 votos)","France ( 17 votos)","Denmark ( 10 votos)","Germany ( 8 votos)","Luxembourg ( 8 votos)","Italy ( 7 votos)","United Kingdom ( 6 votos)","Belgium ( 5 votos)","Switzerland ( 5 votos)","Austria ( 3 votos)"
"France ( 27 votos)","Switzerland ( 24 votos)","Italy ( 13 votos)","Sweden ( 10 votos)","Austria ( 8 votos)","Belgium ( 8 votos)","Germany ( 5 votos)","Denmark ( 3 votos)","The Netherlands ( 1 votos)","Luxembourg ( 1 votos)"
"The Netherlands ( 21 votos)","United Kingdom ( 16 votos)","France ( 15 votos)","Switzerland ( 14 votos)","Denmark ( 12 votos)","Belgium ( 9 votos)","Italy ( 9 votos)","Germany ( 5 votos)","Austria ( 4 votos)","Sweden ( 4 votos)","Monaco ( 1 votos)"
"France ( 32 votos)","United Kingdom ( 25 votos)","Monaco ( 15 votos)","Norway ( 11 votos)","Germany ( 11 votos)","Belgium ( 9 votos)","Austria ( 6 votos)","Italy ( 5 votos)","Switzerland ( 5 votos)","Sweden ( 4 votos)","Denmark ( 4 votos)","The Netherlands ( 2 votos)","Luxembourg ( 1 votos)"
"Luxembourg ( 31 votos)","United Kingdom ( 24 votos)","Switzerland ( 16 votos)","France ( 13 votos)","Italy ( 12 votos)","Denmark ( 12 votos)","Norway ( 10 votos)","Yugoslavia ( 9 votos)","Spain ( 8 votos)","The Netherlands ( 6 votos)","Monaco ( 6 votos)","Finland ( 6 votos)","Germany ( 3 votos)","Sweden ( 2 votos)","Austria ( 1 votos)","Belgium ( 1 votos)"
"France ( 26 votos)","Monaco ( 13 votos)","Luxembourg ( 11 votos)","United Kingdom ( 10 votos)","Yugoslavia ( 10 votos)","Germany ( 9 votos)","Finland ( 4 votos)","Sweden ( 4 votos)","Italy ( 3 votos)","Switzerland ( 2 votos)","Norway ( 2 votos)","Denmark ( 2 votos)","The Netherlands ( 0 votos)","Belgium ( 0 votos)","Spain ( 0 votos)","Austria ( 0 votos)"
"Denmark ( 42 votos)","Switzerland ( 40 votos)","Italy ( 37 votos)","United Kingdom ( 28 votos)","France ( 25 votos)","Monaco ( 25 votos)","Austria ( 16 votos)","Luxembourg ( 13 votos)","Germany ( 5 votos)","Belgium ( 4 votos)","Yugoslavia ( 3 votos)","Spain ( 2 votos)","Norway ( 0 votos)","Finland ( 0 votos)","The Netherlands ( 0 votos)","Sweden ( 0 votos)"
"Italy ( 49 votos)","United Kingdom ( 17 votos)","Monaco ( 15 votos)","France ( 14 votos)","Luxembourg ( 14 votos)","Austria ( 11 votos)","Finland ( 9 votos)","Norway ( 6 votos)","Denmark ( 4 votos)","Belgium ( 2 votos)","The Netherlands ( 2 votos)","Spain ( 1 votos)","Switzerland ( 0 votos)","Germany ( 0 votos)","Portugal ( 0 votos)","Yugoslavia ( 0 votos)"
"Luxembourg ( 32 votos)","United Kingdom ( 26 votos)","France ( 22 votos)","Austria ( 16 votos)","Italy ( 15 votos)","Ireland ( 11 votos)","Denmark ( 10 votos)","Switzerland ( 8 votos)","Monaco ( 7 votos)","Sweden ( 6 votos)","The Netherlands ( 5 votos)","Yugoslavia ( 2 votos)","Norway ( 1 votos)","Portugal ( 1 votos)","Spain ( 0 votos)","Finland ( 0 votos)","Germany ( 0 votos)","Belgium ( 0 votos)"
"Austria ( 31 votos)","Sweden ( 16 votos)","Norway ( 15 votos)","Ireland ( 14 votos)","Belgium ( 14 votos)","Switzerland ( 12 votos)","Yugoslavia ( 9 votos)","Spain ( 9 votos)","United Kingdom ( 8 votos)","Finland ( 7 votos)","Luxembourg ( 7 votos)","Germany ( 7 votos)","Portugal ( 6 votos)","Denmark ( 4 votos)","The Netherlands ( 2 votos)","France ( 1 votos)","Monaco ( 0 votos)","Italy ( 0 votos)"
"United Kingdom ( 47 votos)","Ireland ( 22 votos)","France ( 20 votos)","Luxembourg ( 17 votos)","Monaco ( 10 votos)","Spain ( 9 votos)","Belgium ( 8 votos)","Yugoslavia ( 7 votos)","Germany ( 7 votos)","Sweden ( 7 votos)","Italy ( 4 votos)","Portugal ( 3 votos)","Finland ( 3 votos)","Austria ( 2 votos)","Norway ( 2 votos)","The Netherlands ( 2 votos)","Switzerland ( 0 votos)"
"Spain ( 29 votos)","United Kingdom ( 28 votos)","France ( 20 votos)","Ireland ( 18 votos)","Sweden ( 15 votos)","Germany ( 11 votos)","Yugoslavia ( 8 votos)","Monaco ( 8 votos)","Belgium ( 8 votos)","Italy ( 7 votos)","Luxembourg ( 5 votos)","Portugal ( 5 votos)","Switzerland ( 2 votos)","Norway ( 2 votos)","Austria ( 2 votos)","Finland ( 1 votos)","The Netherlands ( 1 votos)"
"France ( 18 votos)","United Kingdom ( 18 votos)","The Netherlands ( 18 votos)","Spain ( 18 votos)","Switzerland ( 13 votos)","Monaco ( 11 votos)","Belgium ( 10 votos)","Ireland ( 10 votos)","Germany ( 8 votos)","Sweden ( 8 votos)","Luxembourg ( 7 votos)","Finland ( 6 votos)","Yugoslavia ( 5 votos)","Italy ( 5 votos)","Portugal ( 4 votos)","Norway ( 1 votos)"
"Ireland ( 32 votos)","United Kingdom ( 26 votos)","Germany ( 12 votos)","Spain ( 8 votos)","France ( 8 votos)","Switzerland ( 8 votos)","The Netherlands ( 7 votos)","Monaco ( 5 votos)","Italy ( 5 votos)","Belgium ( 5 votos)","Yugoslavia ( 4 votos)","Luxembourg ( 0 votos)"
"Monaco ( 128 votos)","Spain ( 116 votos)","Germany ( 100 votos)","United Kingdom ( 98 votos)","Italy ( 91 votos)","The Netherlands ( 85 votos)","Sweden ( 85 votos)","Finland ( 84 votos)","Portugal ( 83 votos)","France ( 82 votos)","Ireland ( 79 votos)","Switzerland ( 78 votos)","Luxembourg ( 70 votos)","Yugoslavia ( 68 votos)","Belgium ( 68 votos)","Austria ( 66 votos)","Norway ( 65 votos)","Malta ( 52 votos)"
"Luxembourg ( 128 votos)","United Kingdom ( 114 votos)","Germany ( 107 votos)","The Netherlands ( 106 votos)","Austria ( 100 votos)","Italy ( 92 votos)","Portugal ( 90 votos)","Switzerland ( 88 votos)","Yugoslavia ( 87 votos)","Spain ( 83 votos)","France ( 81 votos)","Finland ( 78 votos)","Sweden ( 75 votos)","Norway ( 73 votos)","Ireland ( 72 votos)","Monaco ( 65 votos)","Belgium ( 55 votos)","Malta ( 48 votos)"
"Luxembourg ( 129 votos)","Spain ( 125 votos)","United Kingdom ( 123 votos)","Israel ( 97 votos)","Sweden ( 94 votos)","Finland ( 93 votos)","Norway ( 89 votos)","Monaco ( 85 votos)","Germany ( 85 votos)","Portugal ( 80 votos)","Ireland ( 80 votos)","Switzerland ( 79 votos)","Italy ( 74 votos)","The Netherlands ( 69 votos)","France ( 65 votos)","Yugoslavia ( 65 votos)","Belgium ( 58 votos)"
"Sweden ( 24 votos)","Italy ( 18 votos)","The Netherlands ( 15 votos)","Monaco ( 14 votos)","Luxembourg ( 14 votos)","United Kingdom ( 14 votos)","Israel ( 11 votos)","Ireland ( 11 votos)","Spain ( 10 votos)","Belgium ( 10 votos)","Greece ( 7 votos)","Yugoslavia ( 6 votos)","Finland ( 4 votos)","Portugal ( 3 votos)","Germany ( 3 votos)","Norway ( 3 votos)","Switzerland ( 3 votos)"
"The Netherlands ( 152 votos)","United Kingdom ( 138 votos)","Italy ( 115 votos)","France ( 91 votos)","Luxembourg ( 84 votos)","Switzerland ( 77 votos)","Finland ( 74 votos)","Sweden ( 72 votos)","Ireland ( 68 votos)","Spain ( 53 votos)","Israel ( 40 votos)","Malta ( 32 votos)","Yugoslavia ( 22 votos)","Monaco ( 22 votos)","Belgium ( 17 votos)","Portugal ( 16 votos)","Germany ( 15 votos)","Norway ( 11 votos)","Turkey ( 3 votos)"
"United Kingdom ( 164 votos)","France ( 147 votos)","Monaco ( 93 votos)","Switzerland ( 91 votos)","Austria ( 80 votos)","Israel ( 77 votos)","Italy ( 69 votos)","Belgium ( 68 votos)","The Netherlands ( 56 votos)","Ireland ( 54 votos)","Finland ( 44 votos)","Portugal ( 24 votos)","Greece ( 20 votos)","Luxembourg ( 17 votos)","Germany ( 12 votos)","Spain ( 11 votos)","Yugoslavia ( 10 votos)","Norway ( 7 votos)"
"France ( 136 votos)","United Kingdom ( 121 votos)","Ireland ( 119 votos)","Monaco ( 96 votos)","Greece ( 92 votos)","Switzerland ( 71 votos)","Belgium ( 69 votos)","Germany ( 55 votos)","Spain ( 52 votos)","Finland ( 50 votos)","Israel ( 49 votos)","The Netherlands ( 35 votos)","Italy ( 33 votos)","Portugal ( 18 votos)","Norway ( 18 votos)","Luxembourg ( 17 votos)","Austria ( 11 votos)","Sweden ( 2 votos)"
"Israel ( 157 votos)","Belgium ( 125 votos)","France ( 119 votos)","Monaco ( 107 votos)","Ireland ( 86 votos)","Germany ( 84 votos)","Luxembourg ( 73 votos)","Greece ( 66 votos)","Spain ( 65 votos)","Switzerland ( 65 votos)","United Kingdom ( 61 votos)","Italy ( 53 votos)","The Netherlands ( 37 votos)","Sweden ( 26 votos)","Austria ( 14 votos)","Denmark ( 13 votos)","Portugal ( 5 votos)","Finland ( 2 votos)","Turkey ( 2 votos)","Norway ( 0 votos)"
"Israel ( 125 votos)","Spain ( 116 votos)","France ( 106 votos)","Germany ( 86 votos)","Ireland ( 80 votos)","Denmark ( 76 votos)","United Kingdom ( 73 votos)","Greece ( 69 votos)","Portugal ( 64 votos)","Switzerland ( 60 votos)","Norway ( 57 votos)","The Netherlands ( 51 votos)","Luxembourg ( 44 votos)","Finland ( 38 votos)","Italy ( 27 votos)","Monaco ( 12 votos)","Sweden ( 8 votos)","Belgium ( 5 votos)","Austria ( 5 votos)"
"Ireland ( 143 votos)","Germany ( 128 votos)","United Kingdom ( 106 votos)","Switzerland ( 104 votos)","The Netherlands ( 93 votos)","Italy ( 87 votos)","Portugal ( 71 votos)","Austria ( 64 votos)","Luxembourg ( 56 votos)","Sweden ( 47 votos)","France ( 45 votos)","Spain ( 38 votos)","Greece ( 30 votos)","Denmark ( 25 votos)","Turkey ( 23 votos)","Norway ( 15 votos)","Belgium ( 14 votos)","Morocco ( 7 votos)","Finland ( 6 votos)"
"United Kingdom ( 136 votos)","Germany ( 132 votos)","France ( 125 votos)","Switzerland ( 121 votos)","Ireland ( 105 votos)","Cyprus ( 69 votos)","Israel ( 56 votos)","Greece ( 55 votos)","The Netherlands ( 51 votos)","Sweden ( 50 votos)","Luxembourg ( 41 votos)","Denmark ( 41 votos)","Belgium ( 40 votos)","Spain ( 38 votos)","Yugoslavia ( 35 votos)","Finland ( 27 votos)","Austria ( 20 votos)","Portugal ( 9 votos)","Turkey ( 9 votos)","Norway ( 0 votos)"
"Germany ( 161 votos)","Israel ( 100 votos)","Switzerland ( 97 votos)","Belgium ( 96 votos)","Cyprus ( 85 votos)","Luxembourg ( 78 votos)","United Kingdom ( 76 votos)","Sweden ( 67 votos)","Austria ( 57 votos)","Spain ( 52 votos)","Ireland ( 49 votos)","Norway ( 40 votos)","Portugal ( 32 votos)","Yugoslavia ( 21 votos)","Turkey ( 20 votos)","The Netherlands ( 8 votos)","Denmark ( 5 votos)","Finland ( 0 votos)"
"Luxembourg ( 142 votos)","Israel ( 136 votos)","Sweden ( 126 votos)","Yugoslavia ( 125 votos)","Germany ( 94 votos)","United Kingdom ( 79 votos)","The Netherlands ( 66 votos)","France ( 56 votos)","Austria ( 53 votos)","Norway ( 53 votos)","Italy ( 41 votos)","Finland ( 41 votos)","Portugal ( 33 votos)","Greece ( 32 votos)","Switzerland ( 28 votos)","Cyprus ( 26 votos)","Denmark ( 16 votos)","Belgium ( 13 votos)","Turkey ( 0 votos)","Spain ( 0 votos)"
"Sweden ( 145 votos)","Ireland ( 137 votos)","Spain ( 106 votos)","Denmark ( 101 votos)","Belgium ( 70 votos)","Italy ( 70 votos)","United Kingdom ( 63 votos)","France ( 61 votos)","Finland ( 46 votos)","Luxembourg ( 39 votos)","Portugal ( 38 votos)","Turkey ( 37 votos)","Germany ( 34 votos)","The Netherlands ( 34 votos)","Cyprus ( 31 votos)","Switzerland ( 30 votos)","Norway ( 29 votos)","Yugoslavia ( 26 votos)","Austria ( 5 votos)"
"Norway ( 123 votos)","Germany ( 105 votos)","Sweden ( 103 votos)","United Kingdom ( 100 votos)","Israel ( 93 votos)","Ireland ( 91 votos)","Italy ( 78 votos)","Austria ( 60 votos)","Finland ( 58 votos)","France ( 56 votos)","Denmark ( 41 votos)","Switzerland ( 39 votos)","Luxembourg ( 37 votos)","Spain ( 36 votos)","Turkey ( 36 votos)","Greece ( 15 votos)","Cyprus ( 15 votos)","Portugal ( 9 votos)","Belgium ( 7 votos)"
"Belgium ( 176 votos)","Switzerland ( 140 votos)","Luxembourg ( 117 votos)","Ireland ( 96 votos)","Sweden ( 78 votos)","Denmark ( 77 votos)","United Kingdom ( 72 votos)","Germany ( 62 votos)","Turkey ( 53 votos)","Spain ( 51 votos)","Yugoslavia ( 49 votos)","Norway ( 44 votos)","The Netherlands ( 40 votos)","Portugal ( 28 votos)","Finland ( 22 votos)","Iceland ( 19 votos)","France ( 13 votos)","Austria ( 12 votos)","Israel ( 7 votos)","Cyprus ( 4 votos)"
"Ireland ( 172 votos)","Germany ( 141 votos)","Italy ( 103 votos)","Yugoslavia ( 92 votos)","The Netherlands ( 83 votos)","Denmark ( 83 votos)","Cyprus ( 80 votos)","Israel ( 73 votos)","Norway ( 65 votos)","Greece ( 64 votos)","Belgium ( 56 votos)","Sweden ( 50 votos)","United Kingdom ( 47 votos)","France ( 44 votos)","Finland ( 32 votos)","Iceland ( 28 votos)","Switzerland ( 26 votos)","Portugal ( 15 votos)","Spain ( 10 votos)","Austria ( 8 votos)","Luxembourg ( 4 votos)","Turkey ( 0 votos)"
"Switzerland ( 137 votos)","United Kingdom ( 136 votos)","Denmark ( 92 votos)","Luxembourg ( 90 votos)","Norway ( 88 votos)","Yugoslavia ( 87 votos)","Israel ( 85 votos)","Ireland ( 79 votos)","The Netherlands ( 70 votos)","France ( 64 votos)","Spain ( 58 votos)","Sweden ( 52 votos)","Italy ( 52 votos)","Germany ( 48 votos)","Turkey ( 37 votos)","Iceland ( 20 votos)","Greece ( 10 votos)","Portugal ( 5 votos)","Belgium ( 5 votos)","Finland ( 3 votos)","Austria ( 0 votos)"
"Yugoslavia ( 137 votos)","United Kingdom ( 130 votos)","Denmark ( 111 votos)","Sweden ( 110 votos)","Austria ( 97 votos)","Spain ( 88 votos)","Finland ( 76 votos)","France ( 60 votos)","Italy ( 56 votos)","Greece ( 56 votos)","Cyprus ( 51 votos)","Israel ( 50 votos)","Switzerland ( 47 votos)","Germany ( 46 votos)","The Netherlands ( 45 votos)","Portugal ( 39 votos)","Norway ( 30 votos)","Ireland ( 21 votos)","Belgium ( 13 votos)","Luxembourg ( 8 votos)","Turkey ( 5 votos)","Iceland ( 0 votos)"
"Italy ( 149 votos)","France ( 132 votos)","Ireland ( 132 votos)","Iceland ( 124 votos)","Spain ( 96 votos)","United Kingdom ( 87 votos)","Yugoslavia ( 81 votos)","Denmark ( 64 votos)","Germany ( 60 votos)","Austria ( 58 votos)","Switzerland ( 51 votos)","Belgium ( 46 votos)","Luxembourg ( 38 votos)","Cyprus ( 36 votos)","The Netherlands ( 25 votos)","Sweden ( 24 votos)","Turkey ( 21 votos)","Israel ( 16 votos)","Greece ( 11 votos)","Portugal ( 9 votos)","Finland ( 8 votos)","Norway ( 8 votos)"
"Sweden ( 146 votos)","France ( 146 votos)","Israel ( 139 votos)","Spain ( 119 votos)","Switzerland ( 118 votos)","Malta ( 106 votos)","Italy ( 89 votos)","Portugal ( 62 votos)","Cyprus ( 60 votos)","United Kingdom ( 47 votos)","Ireland ( 47 votos)","Turkey ( 44 votos)","Greece ( 36 votos)","Luxembourg ( 29 votos)","Iceland ( 26 votos)","Belgium ( 23 votos)","Norway ( 14 votos)","Germany ( 10 votos)","Denmark ( 8 votos)","Finland ( 6 votos)","Yugoslavia ( 1 votos)","Austria ( 0 votos)"
"Ireland ( 155 votos)","United Kingdom ( 139 votos)","Malta ( 123 votos)","Italy ( 111 votos)","Greece ( 94 votos)","Israel ( 85 votos)","Iceland ( 80 votos)","France ( 73 votos)","The Netherlands ( 67 votos)","Austria ( 63 votos)","Cyprus ( 57 votos)","Denmark ( 47 votos)","Yugoslavia ( 44 votos)","Spain ( 37 votos)","Switzerland ( 32 votos)","Germany ( 27 votos)","Portugal ( 26 votos)","Norway ( 23 votos)","Turkey ( 17 votos)","Belgium ( 11 votos)","Luxembourg ( 10 votos)","Sweden ( 9 votos)","Finland ( 4 votos)"
"Ireland ( 187 votos)","United Kingdom ( 164 votos)","Switzerland ( 148 votos)","France ( 121 votos)","Norway ( 120 votos)","The Netherlands ( 92 votos)","Sweden ( 89 votos)","Malta ( 69 votos)","Greece ( 64 votos)","Portugal ( 60 votos)","Spain ( 58 votos)","Italy ( 45 votos)","Iceland ( 42 votos)","Austria ( 32 votos)","Croatia ( 31 votos)","Bosnia &amp; Herzegovina ( 27 votos)","Finland ( 20 votos)","Germany ( 18 votos)","Cyprus ( 17 votos)","Luxembourg ( 11 votos)","Turkey ( 10 votos)","Slovenia ( 9 votos)","Denmark ( 9 votos)","Israel ( 4 votos)","Belgium ( 3 votos)"
"Ireland ( 226 votos)","Poland ( 166 votos)","Germany ( 128 votos)","Hungary ( 122 votos)","Malta ( 97 votos)","Norway ( 76 votos)","France ( 74 votos)","Portugal ( 73 votos)","Russia ( 70 votos)","United Kingdom ( 63 votos)","Cyprus ( 51 votos)","Iceland ( 49 votos)","Sweden ( 48 votos)","Greece ( 44 votos)","Bosnia &amp; Herzegovina ( 39 votos)","Croatia ( 27 votos)","Austria ( 19 votos)","Spain ( 17 votos)","Slovakia ( 15 votos)","Switzerland ( 15 votos)","Romania ( 14 votos)","Finland ( 11 votos)","The Netherlands ( 4 votos)","Estonia ( 2 votos)","Lithuania ( 0 votos)"
"Norway ( 148 votos)","Spain ( 119 votos)","Sweden ( 100 votos)","France ( 94 votos)","Denmark ( 92 votos)","Croatia ( 91 votos)","Slovenia ( 84 votos)","Israel ( 81 votos)","Cyprus ( 79 votos)","Malta ( 76 votos)","United Kingdom ( 76 votos)","Greece ( 68 votos)","Austria ( 67 votos)","Ireland ( 44 votos)","Iceland ( 31 votos)","Turkey ( 21 votos)","Russia ( 17 votos)","Poland ( 15 votos)","Bosnia &amp; Herzegovina ( 14 votos)","Belgium ( 8 votos)","Portugal ( 5 votos)","Hungary ( 3 votos)","Germany ( 1 votos)"
"Ireland ( 162 votos)","Norway ( 114 votos)","Sweden ( 100 votos)","Croatia ( 98 votos)","Estonia ( 94 votos)","Portugal ( 92 votos)","The Netherlands ( 78 votos)","United Kingdom ( 77 votos)","Cyprus ( 72 votos)","Austria ( 68 votos)","Malta ( 68 votos)","Turkey ( 57 votos)","Iceland ( 51 votos)","Greece ( 36 votos)","Poland ( 31 votos)","Switzerland ( 22 votos)","Belgium ( 22 votos)","Slovakia ( 19 votos)","France ( 18 votos)","Spain ( 17 votos)","Slovenia ( 16 votos)","Bosnia &amp; Herzegovina ( 13 votos)","Finland ( 9 votos)"
"United Kingdom ( 227 votos)","Ireland ( 157 votos)","Turkey ( 121 votos)","Italy ( 114 votos)","Cyprus ( 98 votos)","Spain ( 96 votos)","France ( 95 votos)","Estonia ( 82 votos)","Malta ( 66 votos)","Slovenia ( 60 votos)","Poland ( 54 votos)","Hungary ( 39 votos)","Greece ( 39 votos)","Sweden ( 36 votos)","Russia ( 33 votos)","Denmark ( 25 votos)","Croatia ( 24 votos)","Germany ( 22 votos)","Bosnia &amp; Herzegovina ( 22 votos)","Iceland ( 18 votos)","Austria ( 12 votos)","Switzerland ( 5 votos)","The Netherlands ( 5 votos)","Portugal ( 0 votos)","Norway ( 0 votos)"
"Israel ( 172 votos)","United Kingdom ( 166 votos)","Malta ( 165 votos)","The Netherlands ( 150 votos)","Croatia ( 131 votos)","Belgium ( 122 votos)","Germany ( 86 votos)","Norway ( 79 votos)","Ireland ( 64 votos)","Sweden ( 53 votos)","Cyprus ( 37 votos)","Estonia ( 36 votos)","Portugal ( 36 votos)","Turkey ( 25 votos)","Finland ( 22 votos)","Spain ( 21 votos)","Poland ( 19 votos)","Slovenia ( 17 votos)","F.Y.R. Macedonia ( 16 votos)","Greece ( 12 votos)","Slovakia ( 8 votos)","Romania ( 6 votos)","Hungary ( 4 votos)","France ( 3 votos)","Switzerland ( 0 votos)"
"Sweden ( 163 votos)","Iceland ( 146 votos)","Germany ( 140 votos)","Croatia ( 118 votos)","Israel ( 93 votos)","Estonia ( 90 votos)","Bosnia &amp; Herzegovina ( 86 votos)","The Netherlands ( 71 votos)","Denmark ( 71 votos)","Austria ( 65 votos)","Slovenia ( 50 votos)","United Kingdom ( 38 votos)","Belgium ( 38 votos)","Norway ( 35 votos)","Malta ( 32 votos)","Turkey ( 21 votos)","Ireland ( 18 votos)","Poland ( 17 votos)","France ( 14 votos)","Lithuania ( 13 votos)","Portugal ( 12 votos)","Cyprus ( 2 votos)","Spain ( 1 votos)"
"Denmark ( 195 votos)","Russia ( 155 votos)","Latvia ( 136 votos)","Estonia ( 98 votos)","Germany ( 96 votos)","Ireland ( 92 votos)","Sweden ( 88 votos)","Malta ( 73 votos)","Croatia ( 70 votos)","Turkey ( 59 votos)","Norway ( 57 votos)","Iceland ( 45 votos)","The Netherlands ( 40 votos)","Austria ( 34 votos)","F.Y.R. Macedonia ( 29 votos)","United Kingdom ( 28 votos)","Romania ( 25 votos)","Spain ( 18 votos)","Finland ( 18 votos)","Switzerland ( 14 votos)","Cyprus ( 8 votos)","Israel ( 7 votos)","France ( 5 votos)","Belgium ( 2 votos)"
"Estonia ( 198 votos)","Denmark ( 177 votos)","Greece ( 147 votos)","France ( 142 votos)","Sweden ( 100 votos)","Spain ( 76 votos)","Slovenia ( 70 votos)","Germany ( 66 votos)","Malta ( 48 votos)","Croatia ( 42 votos)","Turkey ( 41 votos)","Russia ( 37 votos)","Lithuania ( 35 votos)","Bosnia &amp; Herzegovina ( 29 votos)","United Kingdom ( 28 votos)","Israel ( 25 votos)","Portugal ( 18 votos)","Latvia ( 16 votos)","The Netherlands ( 16 votos)","Poland ( 11 votos)","Ireland ( 6 votos)","Iceland ( 3 votos)","Norway ( 3 votos)"
"Latvia ( 176 votos)","Malta ( 164 votos)","United Kingdom ( 111 votos)","Estonia ( 111 votos)","France ( 104 votos)","Cyprus ( 85 votos)","Spain ( 81 votos)","Sweden ( 72 votos)","Romania ( 71 votos)","Russia ( 55 votos)","Croatia ( 44 votos)","Israel ( 37 votos)","Slovenia ( 33 votos)","Bosnia &amp; Herzegovina ( 33 votos)","Belgium ( 33 votos)","Turkey ( 29 votos)","Greece ( 27 votos)","Austria ( 26 votos)","F.Y.R. Macedonia ( 25 votos)","Finland ( 24 votos)","Germany ( 17 votos)","Switzerland ( 15 votos)","Lithuania ( 12 votos)","Denmark ( 7 votos)"
"Turkey ( 167 votos)","Belgium ( 165 votos)","Russia ( 164 votos)","Norway ( 123 votos)","Sweden ( 107 votos)","Austria ( 101 votos)","Poland ( 90 votos)","Iceland ( 81 votos)","Spain ( 81 votos)","Romania ( 73 votos)","Germany ( 53 votos)","Ireland ( 53 votos)","The Netherlands ( 45 votos)","Ukraine ( 30 votos)","Croatia ( 29 votos)","Bosnia &amp; Herzegovina ( 27 votos)","Greece ( 25 votos)","France ( 19 votos)","Israel ( 17 votos)","Cyprus ( 15 votos)","Estonia ( 14 votos)","Portugal ( 13 votos)","Slovenia ( 7 votos)","Latvia ( 5 votos)","Malta ( 4 votos)","United Kingdom ( 0 votos)"
"Ukraine ( 280 votos)","Serbia &amp; Montenegro ( 263 votos)","Greece ( 252 votos)","Turkey ( 195 votos)","Cyprus ( 170 votos)","Sweden ( 170 votos)","Albania ( 106 votos)","Germany ( 93 votos)","Bosnia &amp; Herzegovina ( 91 votos)","Spain ( 87 votos)","Russia ( 67 votos)","Malta ( 50 votos)","Croatia ( 50 votos)","F.Y.R. Macedonia ( 47 votos)","France ( 40 votos)","United Kingdom ( 29 votos)","Poland ( 27 votos)","Romania ( 18 votos)","Iceland ( 16 votos)","The Netherlands ( 11 votos)","Austria ( 9 votos)","Belgium ( 7 votos)","Ireland ( 7 votos)","Norway ( 3 votos)"
"Greece ( 230 votos)","Malta ( 192 votos)","Romania ( 158 votos)","Israel ( 154 votos)","Latvia ( 153 votos)","Moldova ( 148 votos)","Serbia &amp; Montenegro ( 137 votos)","Switzerland ( 128 votos)","Norway ( 125 votos)","Denmark ( 125 votos)","Croatia ( 115 votos)","Hungary ( 97 votos)","Turkey ( 92 votos)","Bosnia &amp; Herzegovina ( 79 votos)","Russia ( 57 votos)","Albania ( 53 votos)","F.Y.R. Macedonia ( 52 votos)","Cyprus ( 46 votos)","Ukraine ( 30 votos)","Sweden ( 30 votos)","Spain ( 28 votos)","United Kingdom ( 18 votos)","France ( 11 votos)","Germany ( 4 votos)"
"Finland ( 292 votos)","Russia ( 248 votos)","Bosnia &amp; Herzegovina ( 229 votos)","Romania ( 172 votos)","Sweden ( 170 votos)","Lithuania ( 162 votos)","Ukraine ( 145 votos)","Armenia ( 129 votos)","Greece ( 128 votos)","Ireland ( 93 votos)","Turkey ( 91 votos)","F.Y.R. Macedonia ( 56 votos)","Croatia ( 56 votos)","Germany ( 36 votos)","Norway ( 36 votos)","Switzerland ( 30 votos)","Latvia ( 30 votos)","Denmark ( 26 votos)","United Kingdom ( 25 votos)","Moldova ( 22 votos)","Spain ( 18 votos)","France ( 5 votos)","Israel ( 4 votos)","Malta ( 1 votos)"
"Serbia ( 268 votos)","Ukraine ( 235 votos)","Russia ( 207 votos)","Turkey ( 163 votos)","Bulgaria ( 157 votos)","Belarus ( 145 votos)","Greece ( 139 votos)","Armenia ( 138 votos)","Hungary ( 128 votos)","Moldova ( 109 votos)","Bosnia &amp; Herzegovina ( 106 votos)","Georgia ( 97 votos)","Romania ( 84 votos)","F.Y.R. Macedonia ( 73 votos)","Slovenia ( 66 votos)","Latvia ( 54 votos)","Finland ( 53 votos)","Sweden ( 51 votos)","Germany ( 49 votos)","Spain ( 43 votos)","Lithuania ( 28 votos)","France ( 19 votos)","United Kingdom ( 19 votos)","Ireland ( 5 votos)"
"Russia ( 272 votos)","Ukraine ( 230 votos)","Greece ( 218 votos)","Armenia ( 199 votos)","Norway ( 182 votos)","Serbia ( 160 votos)","Turkey ( 138 votos)","Azerbaijan ( 132 votos)","Israel ( 124 votos)","Bosnia &amp; Herzegovina ( 110 votos)","Latvia ( 83 votos)","Georgia ( 83 votos)","Portugal ( 69 votos)","Iceland ( 64 votos)","Denmark ( 60 votos)","Albania ( 55 votos)","Spain ( 55 votos)","France ( 47 votos)","Sweden ( 47 votos)","Romania ( 45 votos)","Croatia ( 44 votos)","Finland ( 35 votos)","United Kingdom ( 14 votos)","Poland ( 14 votos)","Germany ( 14 votos)"
"Norway ( 387 votos)","Iceland ( 218 votos)","Azerbaijan ( 207 votos)","Turkey ( 177 votos)","United Kingdom ( 173 votos)","Estonia ( 129 votos)","Greece ( 120 votos)","France ( 107 votos)","Bosnia &amp; Herzegovina ( 106 votos)","Armenia ( 92 votos)","Russia ( 91 votos)","Ukraine ( 76 votos)","Denmark ( 74 votos)","Moldova ( 69 votos)","Portugal ( 57 votos)","Israel ( 53 votos)","Albania ( 48 votos)","Croatia ( 45 votos)","Romania ( 40 votos)","Germany ( 35 votos)","Sweden ( 33 votos)","Malta ( 31 votos)","Spain ( 23 votos)","Lithuania ( 23 votos)","Finland ( 22 votos)"
"Germany ( 246 votos)","Turkey ( 170 votos)","Romania ( 162 votos)","Denmark ( 149 votos)","Azerbaijan ( 145 votos)","Belgium ( 143 votos)","Armenia ( 141 votos)","Greece ( 140 votos)","Georgia ( 136 votos)","Ukraine ( 108 votos)","Russia ( 90 votos)","France ( 82 votos)","Serbia ( 72 votos)","Israel ( 71 votos)","Spain ( 68 votos)","Albania ( 62 votos)","Bosnia &amp; Herzegovina ( 51 votos)","Portugal ( 43 votos)","Iceland ( 41 votos)","Norway ( 35 votos)","Cyprus ( 27 votos)","Moldova ( 27 votos)","Ireland ( 25 votos)","Belarus ( 18 votos)","United Kingdom ( 10 votos)"
"Azerbaijan ( 221 votos)","Italy ( 189 votos)","Sweden ( 185 votos)","Ukraine ( 159 votos)","Denmark ( 134 votos)","Bosnia &amp; Herzegovina ( 125 votos)","Greece ( 120 votos)","Ireland ( 119 votos)","Georgia ( 110 votos)","Germany ( 107 votos)","United Kingdom ( 100 votos)","Moldova ( 97 votos)","Slovenia ( 96 votos)","Serbia ( 85 votos)","France ( 82 votos)","Romania ( 77 votos)","Russia ( 77 votos)","Austria ( 64 votos)","Lithuania ( 63 votos)","Iceland ( 61 votos)","Finland ( 57 votos)","Hungary ( 53 votos)","Spain ( 50 votos)","Estonia ( 44 votos)","Switzerland ( 19 votos)"
"Sweden ( 372 votos)","Russia ( 259 votos)","Serbia ( 214 votos)","Azerbaijan ( 150 votos)","Albania ( 146 votos)","Estonia ( 120 votos)","Turkey ( 112 votos)","Germany ( 110 votos)","Italy ( 101 votos)","Spain ( 97 votos)","Moldova ( 81 votos)","Romania ( 71 votos)","F.Y.R. Macedonia ( 71 votos)","Lithuania ( 70 votos)","Ukraine ( 65 votos)","Cyprus ( 65 votos)","Greece ( 64 votos)","Bosnia &amp; Herzegovina ( 55 votos)","Ireland ( 46 votos)","Iceland ( 46 votos)","Malta ( 41 votos)","Denmark ( 21 votos)","France ( 21 votos)","Hungary ( 19 votos)","United Kingdom ( 12 votos)","Norway ( 7 votos)"
"Denmark ( 281 votos)","Azerbaijan ( 234 votos)","Ukraine ( 214 votos)","Norway ( 191 votos)","Russia ( 174 votos)","Greece ( 152 votos)","Italy ( 126 votos)","Malta ( 120 votos)","The Netherlands ( 114 votos)","Hungary ( 84 votos)","Belgium ( 71 votos)","Moldova ( 71 votos)","Romania ( 65 votos)","Sweden ( 62 votos)","Georgia ( 50 votos)","Belarus ( 48 votos)","Iceland ( 47 votos)","Armenia ( 41 votos)","United Kingdom ( 23 votos)","Estonia ( 19 votos)","Germany ( 18 votos)","Lithuania ( 17 votos)","France ( 14 votos)","Finland ( 13 votos)","Spain ( 8 votos)","Ireland ( 5 votos)"
